## Global evaluation
* MWE-based: P=0.1090 R=0.0287 F=0.0454  @(19/19)
* Tok-based: P=0.1307 R=0.0389 F=0.0600  @(19/19)

## Per-category evaluation (partition of Global)
* IRV: MWE-proportion: gold=31.0000% pred=0.0000%  @(10/19)
* IRV: MWE-based: P=0.0000 R=0.0000 F=0.0000  @(10/19)
* IRV: Tok-based: P=0.0000 R=0.0000 F=0.0000  @(10/19)
* LVC.cause: MWE-proportion: gold=4.0588% pred=0.0000%  @(17/19)
* LVC.cause: MWE-based: P=0.0000 R=0.0000 F=0.0000  @(17/19)
* LVC.cause: Tok-based: P=0.0000 R=0.0000 F=0.0000  @(17/19)
* LVC.full: MWE-proportion: gold=40.1053% pred=0.0000%  @(19/19)
* LVC.full: MWE-based: P=0.0000 R=0.0000 F=0.0000  @(19/19)
* LVC.full: Tok-based: P=0.0000 R=0.0000 F=0.0000  @(19/19)
* MVC: MWE-proportion: gold=7.1429% pred=0.0000%  @(7/19)
* MVC: MWE-based: P=0.0000 R=0.0000 F=0.0000  @(7/19)
* MVC: Tok-based: P=0.0000 R=0.0000 F=0.0000  @(7/19)
* VID: MWE-proportion: gold=24.4444% pred=16.6667%  @(18/19)
* VID: MWE-based: P=0.0684 R=0.0558 F=0.0615  @(18/19)
* VID: Tok-based: P=0.0780 R=0.0577 F=0.0663  @(18/19)
* IAV: MWE-proportion: gold=13.5714% pred=0.0000%  @(7/19)
* IAV: MWE-based: P=0.0000 R=0.0000 F=0.0000  @(7/19)
* IAV: Tok-based: P=0.0000 R=0.0000 F=0.0000  @(7/19)
* LS.ICV: MWE-proportion: gold=2.0000% pred=0.0000%  @(1/19)
* LS.ICV: MWE-based: P=0.0000 R=0.0000 F=0.0000  @(1/19)
* LS.ICV: Tok-based: P=0.0000 R=0.0000 F=0.0000  @(1/19)
* VPC.full: MWE-proportion: gold=21.8571% pred=0.0000%  @(7/19)
* VPC.full: MWE-based: P=0.0000 R=0.0000 F=0.0000  @(7/19)
* VPC.full: Tok-based: P=0.0000 R=0.0000 F=0.0000  @(7/19)
* VPC.semi: MWE-proportion: gold=7.0000% pred=0.0000%  @(3/19)
* VPC.semi: MWE-based: P=0.0000 R=0.0000 F=0.0000  @(3/19)
* VPC.semi: Tok-based: P=0.0000 R=0.0000 F=0.0000  @(3/19)

## MWE continuity (partition of Global)
* Continuous: MWE-proportion: gold=66.1579% pred=15.6842%  @(19/19)
* Continuous: MWE-based: P=0.1090 R=0.0478 F=0.0665  @(19/19)
* Discontinuous: MWE-proportion: gold=33.8421% pred=0.1053%  @(19/19)
* Discontinuous: MWE-based: P=0.0351 R=0.0006 F=0.0012  @(19/19)

## Number of tokens (partition of Global)
* Multi-token: MWE-proportion: gold=94.7895% pred=15.7895%  @(19/19)
* Multi-token: MWE-based: P=0.1090 R=0.0287 F=0.0454  @(19/19)
* Single-token: MWE-proportion: gold=19.8000% pred=0.0000%  @(5/19)
* Single-token: MWE-based: P=0.0000 R=0.0000 F=0.0000  @(5/19)

## Whether seen in train (partition of Global)
* Seen-in-train: MWE-proportion: gold=59.7895% pred=10.9474%  @(19/19)
* Seen-in-train: MWE-based: P=0.1498 R=0.0444 F=0.0685  @(19/19)
* Unseen-in-train: MWE-proportion: gold=40.2105% pred=4.8421%  @(19/19)
* Unseen-in-train: MWE-based: P=0.0176 R=0.0036 F=0.0060  @(19/19)

## Whether identical to train (partition of Seen-in-train)
* Variant-of-train: MWE-proportion: gold=52.7895% pred=6.8421%  @(19/19)
* Variant-of-train: MWE-based: P=0.1451 R=0.0321 F=0.0526  @(19/19)
* Identical-to-train: MWE-proportion: gold=47.2105% pred=8.9474%  @(19/19)
* Identical-to-train: MWE-based: P=0.1531 R=0.0599 F=0.0861  @(19/19)

