## Global evaluation
* MWE-based: P=0.0021 R=0.0372 F=0.0040  @(19/19)
* Tok-based: P=0.2350 R=0.2478 F=0.2412  @(19/19)

## Per-category evaluation (partition of Global)
* <unlabeled>: MWE-proportion: gold=0.0000% pred=74.8000%  @(10/19)
* <unlabeled>: MWE-based: P=0.0000 R=0.0000 F=0.0000  @(10/19)
* <unlabeled>: Tok-based: P=0.0000 R=0.0000 F=0.0000  @(10/19)
* IAV: MWE-proportion: gold=13.5714% pred=9.4286%  @(7/19)
* IAV: MWE-based: P=0.0000 R=0.0000 F=0.0000  @(7/19)
* IAV: Tok-based: P=0.3412 R=0.1076 F=0.1636  @(7/19)
* IRV: MWE-proportion: gold=31.0000% pred=23.2000%  @(10/19)
* IRV: MWE-based: P=0.0000 R=0.0000 F=0.0000  @(10/19)
* IRV: Tok-based: P=0.2746 R=0.1493 F=0.1934  @(10/19)
* LVC.cause: MWE-proportion: gold=4.0588% pred=2.0000%  @(17/19)
* LVC.cause: MWE-based: P=0.0000 R=0.0000 F=0.0000  @(17/19)
* LVC.cause: Tok-based: P=0.1079 R=0.0466 F=0.0651  @(17/19)
* LVC.full: MWE-proportion: gold=40.1053% pred=23.0000%  @(19/19)
* LVC.full: MWE-based: P=0.0000 R=0.0000 F=0.0000  @(19/19)
* LVC.full: Tok-based: P=0.1952 R=0.1031 F=0.1349  @(19/19)
* VID: MWE-proportion: gold=23.1579% pred=12.3684%  @(19/19)
* VID: MWE-based: P=0.0069 R=0.0020 F=0.0031  @(19/19)
* VID: Tok-based: P=0.1612 R=0.0561 F=0.0832  @(19/19)
* VPC.full: MWE-proportion: gold=21.8571% pred=8.5714%  @(7/19)
* VPC.full: MWE-based: P=0.0394 R=0.0044 F=0.0079  @(7/19)
* VPC.full: Tok-based: P=0.1229 R=0.0373 F=0.0572  @(7/19)
* VPC.semi: MWE-proportion: gold=7.0000% pred=3.0000%  @(3/19)
* VPC.semi: MWE-based: P=0.0000 R=0.0000 F=0.0000  @(3/19)
* VPC.semi: Tok-based: P=0.0917 R=0.0705 F=0.0797  @(3/19)
* MVC: MWE-proportion: gold=7.1429% pred=12.8571%  @(7/19)
* MVC: MWE-based: P=0.0000 R=0.0000 F=0.0000  @(7/19)
* MVC: Tok-based: P=0.1240 R=0.1154 F=0.1195  @(7/19)
* LS.ICV: MWE-proportion: gold=2.0000% pred=0.0000%  @(1/19)
* LS.ICV: MWE-based: P=0.0000 R=0.0000 F=0.0000  @(1/19)
* LS.ICV: Tok-based: P=0.0000 R=0.0000 F=0.0000  @(1/19)

## MWE continuity (partition of Global)
* Continuous: MWE-proportion: gold=66.1579% pred=100.0000%  @(19/19)
* Continuous: MWE-based: P=0.0021 R=0.0421 F=0.0040  @(19/19)
* Discontinuous: MWE-proportion: gold=33.8421% pred=0.0000%  @(19/19)
* Discontinuous: MWE-based: P=0.0000 R=0.0000 F=0.0000  @(19/19)

## Number of tokens (partition of Global)
* Multi-token: MWE-proportion: gold=94.7895% pred=0.0000%  @(19/19)
* Multi-token: MWE-based: P=0.0000 R=0.0000 F=0.0000  @(19/19)
* Single-token: MWE-proportion: gold=19.8000% pred=100.0000%  @(5/19)
* Single-token: MWE-based: P=0.0079 R=0.6180 F=0.0156  @(5/19)

## Whether seen in train (partition of Global)
* Seen-in-train: MWE-proportion: gold=59.7895% pred=0.9474%  @(19/19)
* Seen-in-train: MWE-based: P=0.1316 R=0.0399 F=0.0612  @(19/19)
* Unseen-in-train: MWE-proportion: gold=40.2105% pred=99.0526%  @(19/19)
* Unseen-in-train: MWE-based: P=0.0002 R=0.0199 F=0.0004  @(19/19)

## Whether identical to train (partition of Seen-in-train)
* Variant-of-train: MWE-proportion: gold=52.7895% pred=11.5263%  @(19/19)
* Variant-of-train: MWE-based: P=0.0789 R=0.0216 F=0.0339  @(19/19)
* Identical-to-train: MWE-proportion: gold=47.2105% pred=25.3158%  @(19/19)
* Identical-to-train: MWE-based: P=0.1316 R=0.0469 F=0.0692  @(19/19)

