## Global evaluation
* MWE-based: P=0.5613 R=0.3912 F=0.4611  @(19/19)
* Tok-based: P=0.7344 R=0.4349 F=0.5463  @(19/19)

## Per-category evaluation (partition of Global)
* IAV: MWE-proportion: gold=5.0000% pred=100.0000%  @(19/19)
* IAV: MWE-based: P=0.0273 R=0.1127 F=0.0440  @(19/19)
* IAV: Tok-based: P=0.0467 R=0.1706 F=0.0733  @(19/19)
* IRV: MWE-proportion: gold=31.0000% pred=0.0000%  @(10/19)
* IRV: MWE-based: P=0.0000 R=0.0000 F=0.0000  @(10/19)
* IRV: Tok-based: P=0.0000 R=0.0000 F=0.0000  @(10/19)
* LVC.cause: MWE-proportion: gold=4.0588% pred=0.0000%  @(17/19)
* LVC.cause: MWE-based: P=0.0000 R=0.0000 F=0.0000  @(17/19)
* LVC.cause: Tok-based: P=0.0000 R=0.0000 F=0.0000  @(17/19)
* LVC.full: MWE-proportion: gold=40.1053% pred=0.0000%  @(19/19)
* LVC.full: MWE-based: P=0.0000 R=0.0000 F=0.0000  @(19/19)
* LVC.full: Tok-based: P=0.0000 R=0.0000 F=0.0000  @(19/19)
* VID: MWE-proportion: gold=24.4444% pred=0.0000%  @(18/19)
* VID: MWE-based: P=0.0000 R=0.0000 F=0.0000  @(18/19)
* VID: Tok-based: P=0.0000 R=0.0000 F=0.0000  @(18/19)
* VPC.full: MWE-proportion: gold=21.8571% pred=0.0000%  @(7/19)
* VPC.full: MWE-based: P=0.0000 R=0.0000 F=0.0000  @(7/19)
* VPC.full: Tok-based: P=0.0000 R=0.0000 F=0.0000  @(7/19)
* VPC.semi: MWE-proportion: gold=7.0000% pred=0.0000%  @(3/19)
* VPC.semi: MWE-based: P=0.0000 R=0.0000 F=0.0000  @(3/19)
* VPC.semi: Tok-based: P=0.0000 R=0.0000 F=0.0000  @(3/19)
* MVC: MWE-proportion: gold=7.1429% pred=0.0000%  @(7/19)
* MVC: MWE-based: P=0.0000 R=0.0000 F=0.0000  @(7/19)
* MVC: Tok-based: P=0.0000 R=0.0000 F=0.0000  @(7/19)
* LS.ICV: MWE-proportion: gold=2.0000% pred=0.0000%  @(1/19)
* LS.ICV: MWE-based: P=0.0000 R=0.0000 F=0.0000  @(1/19)
* LS.ICV: Tok-based: P=0.0000 R=0.0000 F=0.0000  @(1/19)

## MWE continuity (partition of Global)
* Continuous: MWE-proportion: gold=66.1579% pred=89.5263%  @(19/19)
* Continuous: MWE-based: P=0.5499 R=0.4984 F=0.5229  @(19/19)
* Discontinuous: MWE-proportion: gold=33.8421% pred=10.4737%  @(19/19)
* Discontinuous: MWE-based: P=0.5420 R=0.1548 F=0.2408  @(19/19)

## Number of tokens (partition of Global)
* Multi-token: MWE-proportion: gold=94.7895% pred=70.3158%  @(19/19)
* Multi-token: MWE-based: P=0.6616 R=0.3823 F=0.4846  @(19/19)
* Single-token: MWE-proportion: gold=19.8000% pred=35.4000%  @(5/19)
* Single-token: MWE-based: P=0.2495 R=0.2269 F=0.2377  @(5/19)

## Whether seen in train (partition of Global)
* Seen-in-train: MWE-proportion: gold=59.7895% pred=54.3158%  @(19/19)
* Seen-in-train: MWE-based: P=0.7827 R=0.5271 F=0.6300  @(19/19)
* Unseen-in-train: MWE-proportion: gold=40.2105% pred=45.6842%  @(19/19)
* Unseen-in-train: MWE-based: P=0.2049 R=0.1363 F=0.1637  @(19/19)

## Whether identical to train (partition of Seen-in-train)
* Variant-of-train: MWE-proportion: gold=52.7895% pred=33.7368%  @(19/19)
* Variant-of-train: MWE-based: P=0.7317 R=0.3548 F=0.4779  @(19/19)
* Identical-to-train: MWE-proportion: gold=47.2105% pred=55.7368%  @(19/19)
* Identical-to-train: MWE-based: P=0.8032 R=0.7054 F=0.7511  @(19/19)

